{
	"info": {
		"_postman_id": "9503cb94-8580-420d-9cc0-431e2b3e8a7e",
		"name": "CIVINITY",
		"schema": "https://schema.getpostman.com/json/collection/v2.1.0/collection.json"
	},
	"item": [
		{
			"name": "WEB",
			"item": [
				{
					"name": "/auth/signup",
					"request": {
						"method": "POST",
						"header": [
							{
								"key": "Content-Type",
								"value": "application/json",
								"type": "text"
							},
							{
								"key": "Accept",
								"value": "application/json",
								"type": "text"
							}
						],
						"body": {
							"mode": "raw",
							"raw": "{\n    \"email\": \"test@test.com\",\n    \"password\": \"123\"\n}"
						},
						"url": {
							"raw": "{{web_url}}/auth/signup",
							"host": [
								"{{web_url}}"
							],
							"path": [
								"auth",
								"signup"
							]
						}
					},
					"response": []
				},
				{
					"name": "/auth/login",
					"request": {
						"method": "POST",
						"header": [
							{
								"key": "Content-Type",
								"value": "application/json",
								"type": "text"
							},
							{
								"key": "Accept",
								"value": "application/json",
								"type": "text"
							}
						],
						"body": {
							"mode": "raw",
							"raw": "{\n    \"email\": \"test1@test.com\",\n    \"password\": \"123\"\n}"
						},
						"url": {
							"raw": "{{web_url}}/auth/login",
							"host": [
								"{{web_url}}"
							],
							"path": [
								"auth",
								"login"
							]
						}
					},
					"response": []
				},
				{
					"name": "/sample/test",
					"request": {
						"auth": {
							"type": "bearer",
							"bearer": [
								{
									"key": "token",
									"value": "{{jwt_token}}",
									"type": "string"
								}
							]
						},
						"method": "GET",
						"header": [],
						"url": {
							"raw": "http://localhost:8082/api/web/sample/test",
							"protocol": "http",
							"host": [
								"localhost"
							],
							"port": "8082",
							"path": [
								"api",
								"web",
								"sample",
								"test"
							]
						}
					},
					"response": []
				},
				{
					"name": "/auth/logout",
					"request": {
						"auth": {
							"type": "bearer",
							"bearer": [
								{
									"key": "token",
									"value": "{{jwt_token_WEB}}",
									"type": "string"
								}
							]
						},
						"method": "POST",
						"header": [],
						"url": {
							"raw": "{{web_url}}/auth/logout",
							"host": [
								"{{web_url}}"
							],
							"path": [
								"auth",
								"logout"
							]
						}
					},
					"response": []
				},
				{
					"name": "/onboarding/test",
					"request": {
						"auth": {
							"type": "bearer",
							"bearer": [
								{
									"key": "token",
									"value": "{{jwt_token_WEB}}",
									"type": "string"
								}
							]
						},
						"method": "POST",
						"header": [
							{
								"key": "Accept",
								"value": "application/json",
								"type": "text"
							},
							{
								"key": "Content-Type",
								"value": "application/json",
								"type": "text"
							}
						],
						"body": {
							"mode": "raw",
							"raw": "{\n    \"email\": \"test@test.com\",\n    \"name\": \"Test Testson\",\n    \"role\": \"owner\"\n}"
						},
						"url": {
							"raw": "{{web_url}}/onboarding/test",
							"host": [
								"{{web_url}}"
							],
							"path": [
								"onboarding",
								"test"
							]
						}
					},
					"response": []
				},
				{
					"name": "/session/id",
					"protocolProfileBehavior": {
						"disableBodyPruning": true
					},
					"request": {
						"auth": {
							"type": "bearer",
							"bearer": [
								{
									"key": "token",
									"value": "{{jwt_token_WEB}}",
									"type": "string"
								}
							]
						},
						"method": "GET",
						"header": [],
						"body": {
							"mode": "raw",
							"raw": ""
						},
						"url": {
							"raw": "{{web_url}}/session/622b299cfe876ddf8eab1b47",
							"host": [
								"{{web_url}}"
							],
							"path": [
								"session",
								"622b299cfe876ddf8eab1b47"
							]
						}
					},
					"response": []
				}
			]
		}
	],
	"event": [
		{
			"listen": "prerequest",
			"script": {
				"type": "text/javascript",
				"exec": [
					"const getToken = true;",
					"const login = '/auth/login';",
					"const web_url = pm.collectionVariables.get('web_url') + login;",
					"",
					"const payload = {",
					"    \"email\": \"test@test.com\",",
					"    \"password\": \"123\"",
					"};",
					"",
					"const tokenRequestWeb = {",
					"    url: web_url,",
					"    method: 'POST',",
					"    header: 'Content-Type:application/json',",
					"    body: {",
					"        mode: 'application/json',",
					"        raw: JSON.stringify(payload)",
					"    }",
					"};",
					"",
					"console.log('check', pm.collectionVariables.get('jwt_token_WEB'));",
					"",
					"if (getToken){",
					"    pm.sendRequest(tokenRequestWeb, function (err, res) {",
					"        const resJSON = res.json();",
					"        const token = resJSON.token;",
					"        if (err === null) {",
					"            pm.collectionVariables.set('jwt_token_WEB',token);            ",
					"        }",
					"    });",
					"}"
				]
			}
		},
		{
			"listen": "test",
			"script": {
				"type": "text/javascript",
				"exec": [
					""
				]
			}
		}
	],
	"variable": [
		{
			"key": "jwt_token",
			"value": ""
		},
		{
			"key": "web_url",
			"value": "http://localhost:8082/api/web",
			"type": "string"
		},
		{
			"key": "jwt_token_WEB",
			"value": ""
		}
	]
}