{
	"compilerOptions": {
		"baseUrl": "src",
		"target": "es2019",
		"module": "es6",
		"paths": {
			"@components": ["components/index.js"],
			"@components/*": ["components/*"],
			"@utils/*": ["utils/*"],
			"@pages": ["pages/index.js"],
			"@pages/*": ["pages/*"],
			"@common/*": ["../../common/*"],
			"@assets/icons": ["assets/icons/index.js"],
			"@assets/*": ["assets/*"],
			"@context/*": ["context/*"],
			"@constants/*": ["constants/*"],
			"@hooks/*": ["hooks/*"],
			"@api/*": ["api/*"]
		}
	},
	"exclude": ["node_modules"]
}